<?xml version="1.0" encoding="UTF-8" standalone="no"?>
<svg width="360px" height="360px" viewBox="0 0 360 360" version="1.1" xmlns="http://www.w3.org/2000/svg" xmlns:xlink="http://www.w3.org/1999/xlink" xmlns:sketch="http://www.bohemiancoding.com/sketch/ns">
    <!-- Generator: Sketch 3.5.1 (25234) - http://www.bohemiancoding.com/sketch -->
    <title>-g-frame-6-big</title>
    <desc>Created with Sketch.</desc>
    <defs>
        <rect id="path-1" x="0" y="0" width="360" height="360" rx="2"></rect>
    </defs>
    <g id="Page-1" stroke="none" stroke-width="1" fill="none" fill-rule="evenodd" sketch:type="MSPage">
        <g id="1.2.-Grids" sketch:type="MSArtboardGroup" transform="translate(0.000000, -100.000000)">
            <g id="-g-frame-6-big" sketch:type="MSLayerGroup" transform="translate(0.000000, 100.000000)">
                <g id="Mask-+-Rectangle-122-Copy-25-+-Rectangle-122-Copy-26">
                    <mask id="mask-2" sketch:name="Mask" fill="white">
                        <use xlink:href="#path-1"></use>
                    </mask>
                    <use id="Mask" opacity="0.599871735" sketch:type="MSShapeGroup" xlink:href="#path-1"></use>
                    <g id="Rectangle-122-Copy-25-+-Rectangle-122-Copy-26" mask="url(#mask-2)" stroke="#FFFFFF" sketch:type="MSShapeGroup" opacity="0.599871735">
                        <g transform="translate(345.000000, 112.500000) rotate(-10.000000) translate(-345.000000, -112.500000) translate(270.000000, -135.000000)">
                            <rect id="Rectangle-122-Copy-25" x="0" y="257.8125" width="150" height="237.1875" rx="2"></rect>
                            <rect id="Rectangle-122-Copy-26" x="0" y="0" width="150" height="237.1875" rx="2"></rect>
                        </g>
                    </g>
                    <g id="Rectangle-122-Copy-25-+-Rectangle-122-Copy-26-Copy" mask="url(#mask-2)" stroke="#FFFFFF" sketch:type="MSShapeGroup" opacity="0.599871735">
                        <g transform="translate(30.000000, 246.500000) rotate(-10.000000) translate(-30.000000, -246.500000) translate(-45.000000, -1.000000)">
                            <rect id="Rectangle-122-Copy-25" x="0" y="257.8125" width="150" height="237.1875" rx="2"></rect>
                            <rect id="Rectangle-122-Copy-26" x="0" y="0" width="150" height="237.1875" rx="2"></rect>
                        </g>
                    </g>
                    <g id="Rectangle-122-Copy-25-+-Rectangle-122-Copy-26-Copy-Copy" mask="url(#mask-2)" stroke="#FFFFFF" sketch:type="MSShapeGroup" opacity="0.599871735">
                        <g transform="translate(190.013625, 194.780086) rotate(-9.000000) translate(-190.013625, -194.780086) translate(107.513625, -52.719914)">
                            <rect id="Rectangle-122-Copy-25" x="13.469755" y="343.961369" width="150" height="148.823529" rx="2"></rect>
                            <rect id="Rectangle-122-Copy-26" x="7.38605815" y="173.508244" width="150" height="148.823529" rx="2"></rect>
                            <rect id="Rectangle-122-Copy-27" x="3.88905221" y="2.86368239" width="150" height="148.823529" rx="2"></rect>
                        </g>
                    </g>
                </g>
                <rect id="Mask-Copy" stroke="#A4A4A4" sketch:type="MSShapeGroup" x="0" y="0" width="360" height="360" rx="2"></rect>
            </g>
        </g>
    </g>
</svg>