<?xml version="1.0" encoding="UTF-8" standalone="no"?>
<svg width="360px" height="360px" viewBox="0 0 360 360" version="1.1" xmlns="http://www.w3.org/2000/svg" xmlns:xlink="http://www.w3.org/1999/xlink" xmlns:sketch="http://www.bohemiancoding.com/sketch/ns">
    <!-- Generator: Sketch 3.5.1 (25234) - http://www.bohemiancoding.com/sketch -->
    <title>-g-frame-7-big</title>
    <desc>Created with Sketch.</desc>
    <defs></defs>
    <g id="Page-1" stroke="none" stroke-width="1" fill="none" fill-rule="evenodd" sketch:type="MSPage">
        <g id="1.2.-Grids" sketch:type="MSArtboardGroup" transform="translate(0.000000, -100.000000)" stroke="#FFFFFF" opacity="0.599871735">
            <g id="-g-frame-7-big" sketch:type="MSLayerGroup" transform="translate(0.000000, 100.000000)">
                <rect id="Rectangle-122-Copy-10" sketch:type="MSShapeGroup" x="0" y="0" width="176" height="176" rx="2"></rect>
                <rect id="Rectangle-122-Copy-10" sketch:type="MSShapeGroup" x="0" y="184" width="176" height="176" rx="2"></rect>
                <rect id="Rectangle-122-Copy-10" sketch:type="MSShapeGroup" x="184" y="184" width="176" height="176" rx="2"></rect>
                <rect id="Rectangle-122-Copy-10" sketch:type="MSShapeGroup" x="184" y="0" width="176" height="176" rx="2"></rect>
            </g>
        </g>
    </g>
</svg>